^C:\USERS\PHILIPPE.LHOMME\SOURCE\REPOS\JEU1\JEU1\DEBUG\GESTIONCOMBATS.OBJ|C:\USERS\PHILIPPE.LHOMME\SOURCE\REPOS\JEU1\JEU1\DEBUG\PIEDDELACOLLINE.OBJ|C:\USERS\PHILIPPE.LHOMME\SOURCE\REPOS\JEU1\JEU1\DEBUG\RENCONTREAVECGOBELIN.OBJ|C:\USERS\PHILIPPE.LHOMME\SOURCE\REPOS\JEU1\JEU1\DEBUG\SOURCE.OBJ
C:\USERS\PHILIPPE.LHOMME\SOURCE\REPOS\JEU1\DEBUG\JEU1.EXE
C:\USERS\PHILIPPE.LHOMME\SOURCE\REPOS\JEU1\DEBUG\JEU1.ILK
C:\USERS\PHILIPPE.LHOMME\SOURCE\REPOS\JEU1\DEBUG\JEU1.PDB
